<?xml version="1.0" encoding="ISO-8859-1" standalone="no"?>

<svg 
     version="1.1"
     baseProfile="full"
     xmlns="http://www.w3.org/2000/svg"
     xmlns:xlink="http://www.w3.org/1999/xlink"
     xmlns:ev="http://www.w3.org/2001/xml-events"
     width="14.11111111111111cm"
     height="9.807222222222222cm"
     viewBox="0 0 720 500"
     >
<title>

</title>
<g stroke-linejoin="miter" stroke-dashoffset="0.0000" stroke-dasharray="none" stroke-width="1.0000" stroke-miterlimit="10.000" stroke-linecap="square">
<g transform="matrix(1.0000, 0.0000, 0.0000, 1.0000, -285.00, -126.00)">
<clipPath id="clipea121d71-bf85-4245-927e-70dd85046c99">
  <path d="M 285.00 126.00 L 285.00 628.00 L 1005.0 628.00 L 1005.0 126.00 z"/>
</clipPath>
<g clip-path="url(#clip1)">
<g stroke-linecap="butt" fill="none" stroke-opacity="1.0000" stroke="#000000">
  <path d="M 393.69 2.0000 L 393.69 862.00"/>
</g> <!-- drawing style -->
</g> <!-- clip1 -->
</g> <!-- transform -->
<g transform="matrix(1.0000, 0.0000, 0.0000, 1.0000, -285.00, -126.00)">
<clipPath id="clipfc8beccd-8a39-403a-b7d5-d5f4e9dc6720">
  <path d="M 285.00 126.00 L 285.00 628.00 L 1005.0 628.00 L 1005.0 126.00 z"/>
</clipPath>
<g clip-path="url(#clip2)">
<g stroke-linecap="butt" fill="none" stroke-opacity="1.0000" stroke="#000000">
  <path d="M 393.69 1.0000 L 389.69 5.0000"/>
</g> <!-- drawing style -->
</g> <!-- clip2 -->
</g> <!-- transform -->
<g transform="matrix(1.0000, 0.0000, 0.0000, 1.0000, -285.00, -126.00)">
<clipPath id="clipc139bb06-3a1d-46cb-b738-dade1c19db44">
  <path d="M 285.00 126.00 L 285.00 628.00 L 1005.0 628.00 L 1005.0 126.00 z"/>
</clipPath>
<g clip-path="url(#clip3)">
<g stroke-linecap="butt" fill="none" stroke-opacity="1.0000" stroke="#000000">
  <path d="M 393.69 1.0000 L 397.69 5.0000"/>
</g> <!-- drawing style -->
</g> <!-- clip3 -->
</g> <!-- transform -->
<g transform="matrix(1.0000, 0.0000, 0.0000, 1.0000, -285.00, -126.00)">
<clipPath id="clipf4d894e7-4468-4271-ad89-cb3f1eb66e57">
  <path d="M 285.00 126.00 L 285.00 628.00 L 1005.0 628.00 L 1005.0 126.00 z"/>
</clipPath>
<g clip-path="url(#clip4)">
<g stroke-linecap="butt" fill="none" stroke-opacity="1.0000" stroke="#000000">
  <path d="M 0.0000 571.84 L 1293.0 571.84"/>
</g> <!-- drawing style -->
</g> <!-- clip4 -->
</g> <!-- transform -->
<g transform="matrix(1.0000, 0.0000, 0.0000, 1.0000, -285.00, -126.00)">
<clipPath id="clip2795cb35-7fc2-4e6e-85a1-80707fb1bb29">
  <path d="M 285.00 126.00 L 285.00 628.00 L 1005.0 628.00 L 1005.0 126.00 z"/>
</clipPath>
<g clip-path="url(#clip5)">
<g stroke-linecap="butt" fill="none" stroke-opacity="1.0000" stroke="#000000">
  <path d="M 1294.0 571.84 L 1290.0 567.84"/>
</g> <!-- drawing style -->
</g> <!-- clip5 -->
</g> <!-- transform -->
<g transform="matrix(1.0000, 0.0000, 0.0000, 1.0000, -285.00, -126.00)">
<clipPath id="clip358ac4ff-b919-4cef-9d13-4a43c25d479c">
  <path d="M 285.00 126.00 L 285.00 628.00 L 1005.0 628.00 L 1005.0 126.00 z"/>
</clipPath>
<g clip-path="url(#clip6)">
<g stroke-linecap="butt" fill="none" stroke-opacity="1.0000" stroke="#000000">
  <path d="M 1294.0 571.84 L 1290.0 575.84"/>
</g> <!-- drawing style -->
</g> <!-- clip6 -->
</g> <!-- transform -->
<g transform="matrix(1.0000, 0.0000, 0.0000, 1.0000, -285.00, -126.00)">
<clipPath id="clip5a751fc9-d401-4f9f-a648-075296845717">
  <path d="M 285.00 126.00 L 285.00 628.00 L 1005.0 628.00 L 1005.0 126.00 z"/>
</clipPath>
<g clip-path="url(#clip7)">
<g stroke-linecap="butt" fill="none" stroke-opacity="1.0000" stroke="#000000">
  <path d="M 5.5043 571.84 L 5.5043 574.84"/>
</g> <!-- drawing style -->
</g> <!-- clip7 -->
</g> <!-- transform -->
<g transform="matrix(1.0000, 0.0000, 0.0000, 1.0000, -285.00, -126.00)">
<clipPath id="clip2ce0609c-ae36-4ea1-80b4-e5a053b3c9ee">
  <path d="M 285.00 126.00 L 285.00 628.00 L 1005.0 628.00 L 1005.0 126.00 z"/>
</clipPath>
<g clip-path="url(#clip8)">
<g stroke-linecap="butt" fill="none" stroke-opacity="1.0000" stroke="#000000">
  <path d="M 102.55 571.84 L 102.55 574.84"/>
</g> <!-- drawing style -->
</g> <!-- clip8 -->
</g> <!-- transform -->
<g transform="matrix(1.0000, 0.0000, 0.0000, 1.0000, -285.00, -126.00)">
<clipPath id="clipfdb3ad94-20a4-4ee5-8d9e-df392645daa9">
  <path d="M 285.00 126.00 L 285.00 628.00 L 1005.0 628.00 L 1005.0 126.00 z"/>
</clipPath>
<g clip-path="url(#clip9)">
<g stroke-linecap="butt" fill="none" stroke-opacity="1.0000" stroke="#000000">
  <path d="M 199.59 571.84 L 199.59 574.84"/>
</g> <!-- drawing style -->
</g> <!-- clip9 -->
</g> <!-- transform -->
<g transform="matrix(1.0000, 0.0000, 0.0000, 1.0000, -285.00, -126.00)">
<clipPath id="clip329f6f89-b4af-4beb-8ac4-0b26d6b42f0a">
  <path d="M 285.00 126.00 L 285.00 628.00 L 1005.0 628.00 L 1005.0 126.00 z"/>
</clipPath>
<g clip-path="url(#clip10)">
<g stroke-linecap="butt" fill="none" stroke-opacity="1.0000" stroke="#000000">
  <path d="M 296.64 571.84 L 296.64 574.84"/>
</g> <!-- drawing style -->
</g> <!-- clip10 -->
</g> <!-- transform -->
<g transform="matrix(1.0000, 0.0000, 0.0000, 1.0000, -285.00, -126.00)">
<clipPath id="clip0b3fba34-3e8a-4ac1-b3a8-dd0344c173ba">
  <path d="M 285.00 126.00 L 285.00 628.00 L 1005.0 628.00 L 1005.0 126.00 z"/>
</clipPath>
<g clip-path="url(#clip11)">
<g stroke-linecap="butt" fill="none" stroke-opacity="1.0000" stroke="#000000">
  <path d="M 393.69 571.84 L 393.69 574.84"/>
</g> <!-- drawing style -->
</g> <!-- clip11 -->
</g> <!-- transform -->
<g transform="matrix(1.0000, 0.0000, 0.0000, 1.0000, -285.00, -126.00)">
<clipPath id="clipbb995891-8b27-4cff-bdfd-0039416201f3">
  <path d="M 285.00 126.00 L 285.00 628.00 L 1005.0 628.00 L 1005.0 126.00 z"/>
</clipPath>
<g clip-path="url(#clip12)">
<g stroke-linecap="butt" fill="none" stroke-opacity="1.0000" stroke="#000000">
  <path d="M 490.73 571.84 L 490.73 574.84"/>
</g> <!-- drawing style -->
</g> <!-- clip12 -->
</g> <!-- transform -->
<g transform="matrix(1.0000, 0.0000, 0.0000, 1.0000, -285.00, -126.00)">
<clipPath id="clip8a808e5a-1c8a-496e-adb6-05024b61300b">
  <path d="M 285.00 126.00 L 285.00 628.00 L 1005.0 628.00 L 1005.0 126.00 z"/>
</clipPath>
<g clip-path="url(#clip13)">
<g stroke-linecap="butt" fill="none" stroke-opacity="1.0000" stroke="#000000">
  <path d="M 587.78 571.84 L 587.78 574.84"/>
</g> <!-- drawing style -->
</g> <!-- clip13 -->
</g> <!-- transform -->
<g transform="matrix(1.0000, 0.0000, 0.0000, 1.0000, -285.00, -126.00)">
<clipPath id="clipf8ec2295-343d-4778-8362-4d6358b077cb">
  <path d="M 285.00 126.00 L 285.00 628.00 L 1005.0 628.00 L 1005.0 126.00 z"/>
</clipPath>
<g clip-path="url(#clip14)">
<g stroke-linecap="butt" fill="none" stroke-opacity="1.0000" stroke="#000000">
  <path d="M 684.82 571.84 L 684.82 574.84"/>
</g> <!-- drawing style -->
</g> <!-- clip14 -->
</g> <!-- transform -->
<g transform="matrix(1.0000, 0.0000, 0.0000, 1.0000, -285.00, -126.00)">
<clipPath id="clipb47fea45-aae0-41a2-90d9-ebfd2b81e146">
  <path d="M 285.00 126.00 L 285.00 628.00 L 1005.0 628.00 L 1005.0 126.00 z"/>
</clipPath>
<g clip-path="url(#clip15)">
<g stroke-linecap="butt" fill="none" stroke-opacity="1.0000" stroke="#000000">
  <path d="M 781.87 571.84 L 781.87 574.84"/>
</g> <!-- drawing style -->
</g> <!-- clip15 -->
</g> <!-- transform -->
<g transform="matrix(1.0000, 0.0000, 0.0000, 1.0000, -285.00, -126.00)">
<clipPath id="clipd7432350-0f72-4121-9394-9df894e45f33">
  <path d="M 285.00 126.00 L 285.00 628.00 L 1005.0 628.00 L 1005.0 126.00 z"/>
</clipPath>
<g clip-path="url(#clip16)">
<g stroke-linecap="butt" fill="none" stroke-opacity="1.0000" stroke="#000000">
  <path d="M 878.91 571.84 L 878.91 574.84"/>
</g> <!-- drawing style -->
</g> <!-- clip16 -->
</g> <!-- transform -->
<g transform="matrix(1.0000, 0.0000, 0.0000, 1.0000, -285.00, -126.00)">
<clipPath id="clipbbc4c5b1-1719-4878-9d34-2eb7139736d8">
  <path d="M 285.00 126.00 L 285.00 628.00 L 1005.0 628.00 L 1005.0 126.00 z"/>
</clipPath>
<g clip-path="url(#clip17)">
<g stroke-linecap="butt" fill="none" stroke-opacity="1.0000" stroke="#000000">
  <path d="M 975.96 571.84 L 975.96 574.84"/>
</g> <!-- drawing style -->
</g> <!-- clip17 -->
</g> <!-- transform -->
<g transform="matrix(1.0000, 0.0000, 0.0000, 1.0000, -285.00, -126.00)">
<clipPath id="clipa7e50f1e-dbaa-4b96-a22e-9ff1ede00bd5">
  <path d="M 285.00 126.00 L 285.00 628.00 L 1005.0 628.00 L 1005.0 126.00 z"/>
</clipPath>
<g clip-path="url(#clip18)">
<g stroke-linecap="butt" fill="none" stroke-opacity="1.0000" stroke="#000000">
  <path d="M 1073.0 571.84 L 1073.0 574.84"/>
</g> <!-- drawing style -->
</g> <!-- clip18 -->
</g> <!-- transform -->
<g transform="matrix(1.0000, 0.0000, 0.0000, 1.0000, -285.00, -126.00)">
<clipPath id="clip8785543c-ebc5-4480-b0da-64fadfe77d78">
  <path d="M 285.00 126.00 L 285.00 628.00 L 1005.0 628.00 L 1005.0 126.00 z"/>
</clipPath>
<g clip-path="url(#clip19)">
<g stroke-linecap="butt" fill="none" stroke-opacity="1.0000" stroke="#000000">
  <path d="M 1170.0 571.84 L 1170.0 574.84"/>
</g> <!-- drawing style -->
</g> <!-- clip19 -->
</g> <!-- transform -->
<g transform="matrix(1.0000, 0.0000, 0.0000, 1.0000, -285.00, -126.00)">
<clipPath id="clip3fcf0ddf-5cc0-4bed-be19-2fcdacea5479">
  <path d="M 285.00 126.00 L 285.00 628.00 L 1005.0 628.00 L 1005.0 126.00 z"/>
</clipPath>
<g clip-path="url(#clip20)">
<g stroke-linecap="butt" fill="none" stroke-opacity="1.0000" stroke="#000000">
  <path d="M 1267.1 571.84 L 1267.1 574.84"/>
</g> <!-- drawing style -->
</g> <!-- clip20 -->
</g> <!-- transform -->
<g transform="matrix(1.0000, 0.0000, 0.0000, 1.0000, -285.00, -126.00)">
<clipPath id="clip9b727c4a-13c7-4344-ba10-95672440d5b4">
  <path d="M 285.00 126.00 L 285.00 628.00 L 1005.0 628.00 L 1005.0 126.00 z"/>
</clipPath>
<g clip-path="url(#clip21)">
<g stroke-linecap="butt" fill="none" stroke-opacity="1.0000" stroke="#000000">
  <path d="M 390.69 765.93 L 393.69 765.93"/>
</g> <!-- drawing style -->
</g> <!-- clip21 -->
</g> <!-- transform -->
<g transform="matrix(1.0000, 0.0000, 0.0000, 1.0000, -285.00, -126.00)">
<clipPath id="clip20d08f71-eb29-408a-b597-e82ec7a5a07b">
  <path d="M 285.00 126.00 L 285.00 628.00 L 1005.0 628.00 L 1005.0 126.00 z"/>
</clipPath>
<g clip-path="url(#clip22)">
<g stroke-linecap="butt" fill="none" stroke-opacity="1.0000" stroke="#000000">
  <path d="M 390.69 668.89 L 393.69 668.89"/>
</g> <!-- drawing style -->
</g> <!-- clip22 -->
</g> <!-- transform -->
<g transform="matrix(1.0000, 0.0000, 0.0000, 1.0000, -285.00, -126.00)">
<clipPath id="clipee0e2072-31ad-4ec2-b15d-a54899a4a294">
  <path d="M 285.00 126.00 L 285.00 628.00 L 1005.0 628.00 L 1005.0 126.00 z"/>
</clipPath>
<g clip-path="url(#clip23)">
<g stroke-linecap="butt" fill="none" stroke-opacity="1.0000" stroke="#000000">
  <path d="M 390.69 474.80 L 393.69 474.80"/>
</g> <!-- drawing style -->
</g> <!-- clip23 -->
</g> <!-- transform -->
<g transform="matrix(1.0000, 0.0000, 0.0000, 1.0000, -285.00, -126.00)">
<clipPath id="clipc50adfaf-6644-48f1-b8f4-86bef97450e3">
  <path d="M 285.00 126.00 L 285.00 628.00 L 1005.0 628.00 L 1005.0 126.00 z"/>
</clipPath>
<g clip-path="url(#clip24)">
<g stroke-linecap="butt" fill="none" stroke-opacity="1.0000" stroke="#000000">
  <path d="M 390.69 377.75 L 393.69 377.75"/>
</g> <!-- drawing style -->
</g> <!-- clip24 -->
</g> <!-- transform -->
<g transform="matrix(1.0000, 0.0000, 0.0000, 1.0000, -285.00, -126.00)">
<clipPath id="clip098f790c-fb14-4b4b-8818-ac2b452e299e">
  <path d="M 285.00 126.00 L 285.00 628.00 L 1005.0 628.00 L 1005.0 126.00 z"/>
</clipPath>
<g clip-path="url(#clip25)">
<g stroke-linecap="butt" fill="none" stroke-opacity="1.0000" stroke="#000000">
  <path d="M 390.69 280.71 L 393.69 280.71"/>
</g> <!-- drawing style -->
</g> <!-- clip25 -->
</g> <!-- transform -->
<g transform="matrix(1.0000, 0.0000, 0.0000, 1.0000, -285.00, -126.00)">
<clipPath id="clipdcdf258a-e80f-4547-bba1-30559dbc68d8">
  <path d="M 285.00 126.00 L 285.00 628.00 L 1005.0 628.00 L 1005.0 126.00 z"/>
</clipPath>
<g clip-path="url(#clip26)">
<g stroke-linecap="butt" fill="none" stroke-opacity="1.0000" stroke="#000000">
  <path d="M 390.69 183.66 L 393.69 183.66"/>
</g> <!-- drawing style -->
</g> <!-- clip26 -->
</g> <!-- transform -->
<g transform="matrix(1.0000, 0.0000, 0.0000, 1.0000, -285.00, -126.00)">
<clipPath id="clipf98bf40b-f85f-4dbd-a4c8-6c778b9831ee">
  <path d="M 285.00 126.00 L 285.00 628.00 L 1005.0 628.00 L 1005.0 126.00 z"/>
</clipPath>
<g clip-path="url(#clip27)">
<g stroke-linecap="butt" fill="none" stroke-opacity="1.0000" stroke="#000000">
  <path d="M 390.69 86.618 L 393.69 86.618"/>
</g> <!-- drawing style -->
</g> <!-- clip27 -->
</g> <!-- transform -->
<g id="misc">
</g><!-- misc -->
<g id="layer0">
<g transform="matrix(1.0000, 0.0000, 0.0000, 1.0000, -285.00, -126.00)">
<clipPath id="clip03e4d406-2cfc-407b-82b9-b3b298858cc9">
  <path d="M 285.00 126.00 L 285.00 628.00 L 1005.0 628.00 L 1005.0 126.00 z"/>
</clipPath>
<g clip-path="url(#clip28)">
<g stroke-linejoin="round" stroke-dasharray="10.500,8.0000" stroke-width="2.5000" stroke-linecap="butt" fill="none" stroke-opacity=".69804" stroke="#000000">
  <path d="M 393.69 377.75 L 490.73 377.75"/>
<title>Segment f</title>
<desc>Segment f: Segment [FA]</desc>

</g> <!-- drawing style -->
</g> <!-- clip28 -->
</g> <!-- transform -->
<g transform="matrix(1.0000, 0.0000, 0.0000, 1.0000, -285.00, -126.00)">
<clipPath id="clip3ab071b9-24f3-4939-b484-8d0bdd4ae235">
  <path d="M 285.00 126.00 L 285.00 628.00 L 1005.0 628.00 L 1005.0 126.00 z"/>
</clipPath>
<g clip-path="url(#clip29)">
<g stroke-linejoin="round" stroke-dasharray="10.500,8.0000" stroke-width="2.5000" stroke-linecap="butt" fill="none" stroke-opacity=".69804" stroke="#000000">
  <path d="M 393.69 183.66 L 878.91 183.66"/>
<title>Segment g</title>
<desc>Segment g: Segment [GB]</desc>

</g> <!-- drawing style -->
</g> <!-- clip29 -->
</g> <!-- transform -->
<g transform="matrix(1.0000, 0.0000, 0.0000, 1.0000, -285.00, -126.00)">
<clipPath id="clip275473f8-2ef7-417a-8702-bcb2a29cf195">
  <path d="M 285.00 126.00 L 285.00 628.00 L 1005.0 628.00 L 1005.0 126.00 z"/>
</clipPath>
<g clip-path="url(#clip30)">
<g stroke-linejoin="round" stroke-dasharray="10.500,8.0000" stroke-width="2.5000" stroke-linecap="butt" fill="none" stroke-opacity=".69804" stroke="#000000">
  <path d="M 878.91 183.66 L 878.91 377.75"/>
<title>Segment h</title>
<desc>Segment h: Segment [BC]</desc>

</g> <!-- drawing style -->
</g> <!-- clip30 -->
</g> <!-- transform -->
<g transform="matrix(1.0000, 0.0000, 0.0000, 1.0000, -285.00, -126.00)">
<clipPath id="clip3ef4afa8-b965-4c42-8b02-9a29c2ada066">
  <path d="M 285.00 126.00 L 285.00 628.00 L 1005.0 628.00 L 1005.0 126.00 z"/>
</clipPath>
<g clip-path="url(#clip31)">
<g stroke-linejoin="round" stroke-dasharray="10.500,8.0000" stroke-width="2.5000" stroke-linecap="butt" fill="none" stroke-opacity=".69804" stroke="#000000">
  <path d="M 878.91 377.75 L 490.73 377.75"/>
<title>Segment i</title>
<desc>Segment i: Segment [CA]</desc>

</g> <!-- drawing style -->
</g> <!-- clip31 -->
</g> <!-- transform -->
<g transform="matrix(1.0000, 0.0000, 0.0000, 1.0000, -285.00, -126.00)">
<clipPath id="clipf9090729-8fe5-49fa-afe0-70aedd4576eb">
  <path d="M 285.00 126.00 L 285.00 628.00 L 1005.0 628.00 L 1005.0 126.00 z"/>
</clipPath>
<g clip-path="url(#clip32)">
<g stroke-linejoin="round" stroke-dasharray="10.500,8.0000" stroke-width="2.5000" stroke-linecap="butt" fill="none" stroke-opacity=".69804" stroke="#000000">
  <path d="M 878.91 377.75 L 878.91 571.84"/>
<title>Segment k</title>
<desc>Segment k: Segment [CE]</desc>

</g> <!-- drawing style -->
</g> <!-- clip32 -->
</g> <!-- transform -->
<g transform="matrix(1.0000, 0.0000, 0.0000, 1.0000, -285.00, -126.00)">
<clipPath id="clipb79591f4-cfc5-4a31-9b81-d5480a36e65f">
  <path d="M 285.00 126.00 L 285.00 628.00 L 1005.0 628.00 L 1005.0 126.00 z"/>
</clipPath>
<g clip-path="url(#clip33)">
<g stroke-linejoin="round" stroke-dasharray="10.500,8.0000" stroke-width="2.5000" stroke-linecap="butt" fill="none" stroke-opacity=".69804" stroke="#000000">
  <path d="M 490.73 377.75 L 490.73 571.84"/>
<title>Segment l</title>
<desc>Segment l: Segment [AD]</desc>

</g> <!-- drawing style -->
</g> <!-- clip33 -->
</g> <!-- transform -->
<g transform="matrix(1.0000, 0.0000, 0.0000, 1.0000, -285.00, -126.00)">
<clipPath id="clip91cce29a-d2a2-497a-98fb-2a7685ed18df">
  <path d="M 285.00 126.00 L 285.00 628.00 L 1005.0 628.00 L 1005.0 126.00 z"/>
</clipPath>
<g clip-path="url(#clip34)">
<g stroke-width="2.5000" fill="none" stroke-opacity="1.0000" stroke="#000000">
  <path d="M 485.73 372.75 L 495.73 382.75"/>
<title>Point A</title>
<desc>A = (0.5, 1)</desc>

</g> <!-- drawing style -->
</g> <!-- clip34 -->
</g> <!-- transform -->
<g transform="matrix(1.0000, 0.0000, 0.0000, 1.0000, -285.00, -126.00)">
<clipPath id="clip017b1bd3-8ce0-43bf-9a85-f7789e040061">
  <path d="M 285.00 126.00 L 285.00 628.00 L 1005.0 628.00 L 1005.0 126.00 z"/>
</clipPath>
<g clip-path="url(#clip35)">
<g stroke-width="2.5000" fill="none" stroke-opacity="1.0000" stroke="#000000">
  <path d="M 485.73 382.75 L 495.73 372.75"/>
<title>Point A</title>
<desc>A = (0.5, 1)</desc>

</g> <!-- drawing style -->
</g> <!-- clip35 -->
</g> <!-- transform -->
<g transform="matrix(1.0000, 0.0000, 0.0000, 1.0000, -285.00, -126.00)">
<clipPath id="clip85d01504-af3d-439b-82d0-80c8af250a9e">
  <path d="M 285.00 126.00 L 285.00 628.00 L 1005.0 628.00 L 1005.0 126.00 z"/>
</clipPath>
<g clip-path="url(#clip36)">
<g stroke-width="2.5000" fill="none" stroke-opacity="1.0000" stroke="#000000">
  <path d="M 873.91 178.66 L 883.91 188.66"/>
<title>Point B</title>
<desc>B = (2.5, 2)</desc>

</g> <!-- drawing style -->
</g> <!-- clip36 -->
</g> <!-- transform -->
<g transform="matrix(1.0000, 0.0000, 0.0000, 1.0000, -285.00, -126.00)">
<clipPath id="clip63705847-8a5e-4543-85aa-ad6f95b18d84">
  <path d="M 285.00 126.00 L 285.00 628.00 L 1005.0 628.00 L 1005.0 126.00 z"/>
</clipPath>
<g clip-path="url(#clip37)">
<g stroke-width="2.5000" fill="none" stroke-opacity="1.0000" stroke="#000000">
  <path d="M 873.91 188.66 L 883.91 178.66"/>
<title>Point B</title>
<desc>B = (2.5, 2)</desc>

</g> <!-- drawing style -->
</g> <!-- clip37 -->
</g> <!-- transform -->
<g transform="matrix(.25000, 0.0000, 0.0000, .25000, 73.000, 250.77)">
<clipPath id="clip9073067a-f476-4014-a3fa-e726c0a42ff7">
  <path d="M -292.00 -1003.1 L -292.00 1004.9 L 2588.0 1004.9 L 2588.0 -1003.1 z"/>
</clipPath>
<g clip-path="url(#clip38)">
<g fill-opacity="1.0000" fill-rule="nonzero" stroke="none" fill="#000000">
  <path d="M 48.594 -38.094 L 39.000 .093750 Q 36.594 9.9062 28.297 16.000 Q 22.203 20.500 15.594 20.500 Q 8.9062 20.500 6.0938 15.906 Q 5.0000 14.000 5.0000 11.797 Q 5.0000 6.7031 9.0938 5.5000 Q 9.9062 5.2969 10.594 5.2969 Q 13.797 5.2969 14.203 8.0938 Q 14.297 8.4062 14.297 8.7969 Q 14.297 11.094 12.297 12.906 Q 10.906 14.094 8.0000 14.094 Q 9.7969 18.297 15.594 18.297 Q 21.797 18.297 26.594 12.000 Q 30.500 6.7969 32.797 -2.0938 Q 32.906 -2.5000 33.094 -3.4062 Q 28.594 1.0938 23.000 1.0938 Q 15.000 1.0938 12.094 -4.7969 Q 10.797 -7.4062 10.797 -10.797 Q 10.797 -16.297 16.094 -30.500 Q 16.297 -31.094 16.594 -31.797 Q 18.297 -36.406 18.297 -38.797 Q 18.297 -42.000 15.797 -42.000 Q 10.297 -42.000 6.7969 -32.906 L 6.7969 -32.797 Q 6.2031 -31.297 5.7031 -29.594 Q 4.5938 -27.906 4.0938 -27.797 Q 2.9062 -27.797 2.9062 -28.797 Q 2.9062 -30.594 5.0000 -35.094 Q 9.4062 -44.203 16.094 -44.203 Q 21.406 -44.203 23.500 -39.703 Q 24.297 -38.000 24.297 -36.000 Q 24.297 -33.906 22.297 -28.797 Q 17.203 -15.594 17.203 -9.2031 Q 17.203 -1.0938 23.406 -1.0938 Q 29.203 -1.0938 33.500 -7.2969 Q 34.500 -8.7969 34.703 -9.5938 L 39.203 -27.594 Q 39.906 -30.906 41.203 -35.594 Q 42.203 -39.906 42.594 -41.000 Q 43.906 -43.094 46.094 -43.094 Q 48.594 -42.594 49.000 -40.406 Q 49.000 -39.500 48.594 -38.094 z"/>
<title>y_A</title>
<desc>texte1 = “y_A”</desc>

</g> <!-- drawing style -->
</g> <!-- clip38 -->
</g> <!-- transform -->
<g transform="matrix(.17500, 0.0000, 0.0000, .17500, 85.250, 254.52)">
<clipPath id="clip6c68397a-0fe2-49a4-8ccc-e18619c1a936">
  <path d="M -487.14 -1454.4 L -487.14 1414.1 L 3627.1 1414.1 L 3627.1 -1454.4 z"/>
</clipPath>
<g clip-path="url(#clip39)">
<g fill-opacity="1.0000" fill-rule="nonzero" stroke="none" fill="#000000">
  <path d="M 17.906 -11.500 L 52.703 -69.906 Q 53.703 -71.500 55.297 -71.594 Q 56.797 -71.594 57.000 -70.594 Q 57.094 -70.297 57.203 -69.203 L 63.297 -6.7031 Q 63.594 -4.2031 64.500 -3.7031 L 64.594 -3.7031 L 64.594 -3.7031 L 64.594 -3.7031 L 64.594 -3.7031 L 64.594 -3.5938 Q 65.797 -3.0938 69.797 -3.0938 Q 72.000 -3.0938 72.094 -2.0000 Q 72.094 -0.0000 70.297 -0.0000 L 59.094 -.29688 L 59.000 -.29688 L 46.594 -0.0000 L 46.500 -0.0000 Q 45.094 -0.0000 45.094 -1.0938 Q 45.906 -3.0000 47.500 -3.0938 Q 54.703 -3.0938 54.703 -6.4062 Q 54.703 -6.2969 53.094 -23.094 L 28.000 -23.094 L 20.406 -10.297 Q 19.000 -7.7969 19.000 -6.5938 Q 19.000 -3.5000 23.703 -3.0938 Q 25.297 -3.0938 25.297 -1.9062 Q 25.297 -0.0000 23.406 -0.0000 L 13.797 -.29688 L 13.406 -.29688 L 5.0000 -0.0000 L 4.7969 -0.0000 Q 3.5000 -0.0000 3.5000 -1.0938 Q 3.5000 -2.9062 5.0000 -3.0000 L 5.0000 -3.0938 L 5.5938 -3.0938 Q 11.906 -3.5000 15.906 -8.5000 Q 16.906 -9.7969 17.906 -11.500 z M 29.906 -26.203 L 52.797 -26.203 L 49.594 -59.203 L 29.906 -26.203 z"/>
<title>y_A</title>
<desc>texte1 = “y_A”</desc>

</g> <!-- drawing style -->
</g> <!-- clip39 -->
</g> <!-- transform -->
<g transform="matrix(.25000, 0.0000, 0.0000, .25000, 79.000, 62.775)">
<clipPath id="clip6ca202ca-3309-496a-9748-2ca7efe4c0fe">
  <path d="M -316.00 -251.10 L -316.00 1756.9 L 2564.0 1756.9 L 2564.0 -251.10 z"/>
</clipPath>
<g clip-path="url(#clip40)">
<g fill-opacity="1.0000" fill-rule="nonzero" stroke="none" fill="#000000">
  <path d="M 48.594 -38.094 L 39.000 .093750 Q 36.594 9.9062 28.297 16.000 Q 22.203 20.500 15.594 20.500 Q 8.9062 20.500 6.0938 15.906 Q 5.0000 14.000 5.0000 11.797 Q 5.0000 6.7031 9.0938 5.5000 Q 9.9062 5.2969 10.594 5.2969 Q 13.797 5.2969 14.203 8.0938 Q 14.297 8.4062 14.297 8.7969 Q 14.297 11.094 12.297 12.906 Q 10.906 14.094 8.0000 14.094 Q 9.7969 18.297 15.594 18.297 Q 21.797 18.297 26.594 12.000 Q 30.500 6.7969 32.797 -2.0938 Q 32.906 -2.5000 33.094 -3.4062 Q 28.594 1.0938 23.000 1.0938 Q 15.000 1.0938 12.094 -4.7969 Q 10.797 -7.4062 10.797 -10.797 Q 10.797 -16.297 16.094 -30.500 Q 16.297 -31.094 16.594 -31.797 Q 18.297 -36.406 18.297 -38.797 Q 18.297 -42.000 15.797 -42.000 Q 10.297 -42.000 6.7969 -32.906 L 6.7969 -32.797 Q 6.2031 -31.297 5.7031 -29.594 Q 4.5938 -27.906 4.0938 -27.797 Q 2.9062 -27.797 2.9062 -28.797 Q 2.9062 -30.594 5.0000 -35.094 Q 9.4062 -44.203 16.094 -44.203 Q 21.406 -44.203 23.500 -39.703 Q 24.297 -38.000 24.297 -36.000 Q 24.297 -33.906 22.297 -28.797 Q 17.203 -15.594 17.203 -9.2031 Q 17.203 -1.0938 23.406 -1.0938 Q 29.203 -1.0938 33.500 -7.2969 Q 34.500 -8.7969 34.703 -9.5938 L 39.203 -27.594 Q 39.906 -30.906 41.203 -35.594 Q 42.203 -39.906 42.594 -41.000 Q 43.906 -43.094 46.094 -43.094 Q 48.594 -42.594 49.000 -40.406 Q 49.000 -39.500 48.594 -38.094 z"/>
<title>y_B</title>
<desc>texte2 = “y_B”</desc>

</g> <!-- drawing style -->
</g> <!-- clip40 -->
</g> <!-- transform -->
<g transform="matrix(.17500, 0.0000, 0.0000, .17500, 91.250, 66.525)">
<clipPath id="clip11d4bc85-d681-4b20-bd21-c65aaa28b1f8">
  <path d="M -521.43 -380.14 L -521.43 2488.4 L 3592.9 2488.4 L 3592.9 -380.14 z"/>
</clipPath>
<g clip-path="url(#clip41)">
<g fill-opacity="1.0000" fill-rule="nonzero" stroke="none" fill="#000000">
  <path d="M 16.000 -7.7969 L 29.406 -61.500 Q 29.797 -63.094 29.797 -63.406 Q 29.797 -64.594 28.203 -64.906 L 28.094 -64.906 L 28.000 -64.906 Q 27.703 -64.906 27.094 -65.000 Q 25.406 -65.203 23.297 -65.203 Q 20.703 -65.203 20.500 -66.297 Q 20.500 -68.094 22.000 -68.297 L 22.094 -68.297 L 22.203 -68.297 L 23.406 -68.297 L 57.000 -68.297 Q 68.500 -68.297 73.406 -61.500 Q 75.594 -58.297 75.594 -54.500 Q 75.594 -46.406 66.594 -40.406 Q 66.500 -40.406 66.406 -40.297 Q 61.094 -36.906 54.703 -35.703 Q 64.906 -34.500 68.703 -27.703 Q 70.203 -24.906 70.203 -21.594 Q 70.203 -14.297 63.203 -7.9062 L 63.094 -7.7969 Q 54.500 -0.0000 42.594 -0.0000 L 6.9062 -0.0000 Q 4.4062 -0.0000 4.2031 -1.0938 Q 4.2031 -2.9062 5.7031 -3.0938 L 6.9062 -3.0938 Q 13.406 -3.0938 14.703 -4.5000 Q 15.297 -5.2031 15.906 -7.2969 Q 15.906 -7.4062 16.000 -7.7969 z M 31.094 -36.594 L 45.703 -36.594 Q 55.594 -36.594 62.000 -43.797 Q 66.500 -48.906 66.500 -54.906 Q 66.500 -62.203 60.500 -64.406 Q 58.406 -65.203 55.594 -65.203 L 42.703 -65.203 Q 39.094 -65.203 38.297 -64.203 L 38.297 -64.203 L 38.297 -64.094 L 38.203 -64.094 L 38.203 -64.000 Q 37.797 -63.406 37.297 -61.406 L 31.094 -36.594 z M 26.594 -3.0938 L 40.203 -3.0938 Q 49.797 -3.0938 56.094 -10.297 Q 60.906 -15.906 60.906 -22.703 Q 60.906 -30.000 55.703 -33.000 Q 53.094 -34.406 49.406 -34.406 L 30.500 -34.406 L 23.594 -6.5000 Q 23.094 -4.7031 23.094 -4.2031 Q 23.094 -3.4062 24.000 -3.2031 L 24.000 -3.2031 L 24.000 -3.2031 L 24.406 -3.2031 Q 25.000 -3.0938 26.594 -3.0938 z"/>
<title>y_B</title>
<desc>texte2 = “y_B”</desc>

</g> <!-- drawing style -->
</g> <!-- clip41 -->
</g> <!-- transform -->
<g transform="matrix(.25000, 0.0000, 0.0000, .25000, 198.00, 472.77)">
<clipPath id="clip7a828d70-83a3-4413-94fc-4fe07fe172d1">
  <path d="M -792.00 -1891.1 L -792.00 116.90 L 2088.0 116.90 L 2088.0 -1891.1 z"/>
</clipPath>
<g clip-path="url(#clip42)">
<g fill-opacity="1.0000" fill-rule="nonzero" stroke="none" fill="#000000">
  <path d="M 33.406 -30.203 L 30.000 -16.500 Q 28.297 -9.7031 28.297 -7.7031 Q 28.297 -2.5000 32.000 -1.4062 Q 32.797 -1.0938 33.797 -1.0938 Q 38.797 -1.0938 42.906 -6.0938 Q 45.594 -9.2969 47.094 -14.203 Q 47.406 -15.297 48.406 -15.297 Q 49.594 -15.297 49.594 -14.297 Q 49.594 -11.797 46.500 -7.0938 Q 41.094 1.0938 33.594 1.0938 Q 26.797 1.0938 23.703 -4.5938 Q 23.094 -5.5000 22.797 -6.5000 Q 20.406 -1.7031 16.203 .20312 Q 14.297 1.0938 12.297 1.0938 Q 6.2969 1.0938 3.9062 -2.4062 Q 2.9062 -3.7031 2.9062 -5.5000 Q 2.9062 -9.2031 6.0938 -10.703 Q 7.2031 -11.297 8.4062 -11.297 Q 11.406 -11.297 12.000 -8.7969 Q 12.094 -8.2969 12.094 -7.7969 Q 12.094 -4.4062 8.7031 -2.7969 Q 8.0938 -2.5000 7.4062 -2.4062 Q 9.5000 -1.0938 12.406 -1.0938 Q 17.703 -1.0938 20.797 -8.2031 Q 21.406 -9.7031 21.906 -11.500 Q 27.297 -31.906 27.297 -35.297 Q 26.703 -41.500 21.906 -42.000 Q 16.703 -42.000 12.406 -36.703 L 12.406 -36.594 Q 12.406 -36.500 12.297 -36.500 Q 10.797 -34.500 9.5938 -31.906 Q 9.0938 -30.703 8.7031 -29.500 L 8.5000 -28.906 Q 8.2969 -27.797 7.2031 -27.797 Q 6.0000 -27.797 6.0000 -28.797 Q 6.0000 -31.297 9.2031 -36.000 Q 14.594 -44.203 22.094 -44.203 Q 29.797 -44.203 32.906 -36.594 Q 36.094 -42.797 41.406 -44.000 Q 42.406 -44.203 43.406 -44.203 Q 49.297 -44.203 51.703 -40.906 Q 52.703 -39.500 52.703 -37.594 Q 52.703 -33.500 49.000 -32.094 Q 48.094 -31.797 47.297 -31.797 Q 44.203 -31.797 43.594 -34.500 Q 43.500 -34.906 43.500 -35.297 Q 43.500 -38.297 46.406 -40.000 Q 47.297 -40.500 48.297 -40.703 Q 46.203 -42.000 43.297 -42.000 Q 36.500 -42.000 33.703 -31.406 Q 33.500 -30.797 33.406 -30.203 z"/>
<title>x_A</title>
<desc>texte3 = “x_A”</desc>

</g> <!-- drawing style -->
</g> <!-- clip42 -->
</g> <!-- transform -->
<g transform="matrix(.17500, 0.0000, 0.0000, .17500, 212.30, 476.52)">
<clipPath id="clipb70eb7a8-61e4-4a27-aca3-551d22870e08">
  <path d="M -1213.1 -2723.0 L -1213.1 145.57 L 2901.1 145.57 L 2901.1 -2723.0 z"/>
</clipPath>
<g clip-path="url(#clip43)">
<g fill-opacity="1.0000" fill-rule="nonzero" stroke="none" fill="#000000">
  <path d="M 17.906 -11.500 L 52.703 -69.906 Q 53.703 -71.500 55.297 -71.594 Q 56.797 -71.594 57.000 -70.594 Q 57.094 -70.297 57.203 -69.203 L 63.297 -6.7031 Q 63.594 -4.2031 64.500 -3.7031 L 64.594 -3.7031 L 64.594 -3.7031 L 64.594 -3.7031 L 64.594 -3.7031 L 64.594 -3.5938 Q 65.797 -3.0938 69.797 -3.0938 Q 72.000 -3.0938 72.094 -2.0000 Q 72.094 -0.0000 70.297 -0.0000 L 59.094 -.29688 L 59.000 -.29688 L 46.594 -0.0000 L 46.500 -0.0000 Q 45.094 -0.0000 45.094 -1.0938 Q 45.906 -3.0000 47.500 -3.0938 Q 54.703 -3.0938 54.703 -6.4062 Q 54.703 -6.2969 53.094 -23.094 L 28.000 -23.094 L 20.406 -10.297 Q 19.000 -7.7969 19.000 -6.5938 Q 19.000 -3.5000 23.703 -3.0938 Q 25.297 -3.0938 25.297 -1.9062 Q 25.297 -0.0000 23.406 -0.0000 L 13.797 -.29688 L 13.406 -.29688 L 5.0000 -0.0000 L 4.7969 -0.0000 Q 3.5000 -0.0000 3.5000 -1.0938 Q 3.5000 -2.9062 5.0000 -3.0000 L 5.0000 -3.0938 L 5.5938 -3.0938 Q 11.906 -3.5000 15.906 -8.5000 Q 16.906 -9.7969 17.906 -11.500 z M 29.906 -26.203 L 52.797 -26.203 L 49.594 -59.203 L 29.906 -26.203 z"/>
<title>x_A</title>
<desc>texte3 = “x_A”</desc>

</g> <!-- drawing style -->
</g> <!-- clip43 -->
</g> <!-- transform -->
<g transform="matrix(.25000, 0.0000, 0.0000, .25000, 584.00, 471.78)">
<clipPath id="clipb9f78751-5e60-4401-b5b4-5732fbbba435">
  <path d="M -2336.0 -1887.1 L -2336.0 120.90 L 544.00 120.90 L 544.00 -1887.1 z"/>
</clipPath>
<g clip-path="url(#clip44)">
<g fill-opacity="1.0000" fill-rule="nonzero" stroke="none" fill="#000000">
  <path d="M 33.406 -30.203 L 30.000 -16.500 Q 28.297 -9.7031 28.297 -7.7031 Q 28.297 -2.5000 32.000 -1.4062 Q 32.797 -1.0938 33.797 -1.0938 Q 38.797 -1.0938 42.906 -6.0938 Q 45.594 -9.2969 47.094 -14.203 Q 47.406 -15.297 48.406 -15.297 Q 49.594 -15.297 49.594 -14.297 Q 49.594 -11.797 46.500 -7.0938 Q 41.094 1.0938 33.594 1.0938 Q 26.797 1.0938 23.703 -4.5938 Q 23.094 -5.5000 22.797 -6.5000 Q 20.406 -1.7031 16.203 .20312 Q 14.297 1.0938 12.297 1.0938 Q 6.2969 1.0938 3.9062 -2.4062 Q 2.9062 -3.7031 2.9062 -5.5000 Q 2.9062 -9.2031 6.0938 -10.703 Q 7.2031 -11.297 8.4062 -11.297 Q 11.406 -11.297 12.000 -8.7969 Q 12.094 -8.2969 12.094 -7.7969 Q 12.094 -4.4062 8.7031 -2.7969 Q 8.0938 -2.5000 7.4062 -2.4062 Q 9.5000 -1.0938 12.406 -1.0938 Q 17.703 -1.0938 20.797 -8.2031 Q 21.406 -9.7031 21.906 -11.500 Q 27.297 -31.906 27.297 -35.297 Q 26.703 -41.500 21.906 -42.000 Q 16.703 -42.000 12.406 -36.703 L 12.406 -36.594 Q 12.406 -36.500 12.297 -36.500 Q 10.797 -34.500 9.5938 -31.906 Q 9.0938 -30.703 8.7031 -29.500 L 8.5000 -28.906 Q 8.2969 -27.797 7.2031 -27.797 Q 6.0000 -27.797 6.0000 -28.797 Q 6.0000 -31.297 9.2031 -36.000 Q 14.594 -44.203 22.094 -44.203 Q 29.797 -44.203 32.906 -36.594 Q 36.094 -42.797 41.406 -44.000 Q 42.406 -44.203 43.406 -44.203 Q 49.297 -44.203 51.703 -40.906 Q 52.703 -39.500 52.703 -37.594 Q 52.703 -33.500 49.000 -32.094 Q 48.094 -31.797 47.297 -31.797 Q 44.203 -31.797 43.594 -34.500 Q 43.500 -34.906 43.500 -35.297 Q 43.500 -38.297 46.406 -40.000 Q 47.297 -40.500 48.297 -40.703 Q 46.203 -42.000 43.297 -42.000 Q 36.500 -42.000 33.703 -31.406 Q 33.500 -30.797 33.406 -30.203 z"/>
<title>x_B</title>
<desc>texte4 = “x_B”</desc>

</g> <!-- drawing style -->
</g> <!-- clip44 -->
</g> <!-- transform -->
<g transform="matrix(.17500, 0.0000, 0.0000, .17500, 598.30, 475.52)">
<clipPath id="clip3aa459ea-4aae-45d6-9c66-48435eda019b">
  <path d="M -3418.9 -2717.3 L -3418.9 151.29 L 695.43 151.29 L 695.43 -2717.3 z"/>
</clipPath>
<g clip-path="url(#clip45)">
<g fill-opacity="1.0000" fill-rule="nonzero" stroke="none" fill="#000000">
  <path d="M 16.000 -7.7969 L 29.406 -61.500 Q 29.797 -63.094 29.797 -63.406 Q 29.797 -64.594 28.203 -64.906 L 28.094 -64.906 L 28.000 -64.906 Q 27.703 -64.906 27.094 -65.000 Q 25.406 -65.203 23.297 -65.203 Q 20.703 -65.203 20.500 -66.297 Q 20.500 -68.094 22.000 -68.297 L 22.094 -68.297 L 22.203 -68.297 L 23.406 -68.297 L 57.000 -68.297 Q 68.500 -68.297 73.406 -61.500 Q 75.594 -58.297 75.594 -54.500 Q 75.594 -46.406 66.594 -40.406 Q 66.500 -40.406 66.406 -40.297 Q 61.094 -36.906 54.703 -35.703 Q 64.906 -34.500 68.703 -27.703 Q 70.203 -24.906 70.203 -21.594 Q 70.203 -14.297 63.203 -7.9062 L 63.094 -7.7969 Q 54.500 -0.0000 42.594 -0.0000 L 6.9062 -0.0000 Q 4.4062 -0.0000 4.2031 -1.0938 Q 4.2031 -2.9062 5.7031 -3.0938 L 6.9062 -3.0938 Q 13.406 -3.0938 14.703 -4.5000 Q 15.297 -5.2031 15.906 -7.2969 Q 15.906 -7.4062 16.000 -7.7969 z M 31.094 -36.594 L 45.703 -36.594 Q 55.594 -36.594 62.000 -43.797 Q 66.500 -48.906 66.500 -54.906 Q 66.500 -62.203 60.500 -64.406 Q 58.406 -65.203 55.594 -65.203 L 42.703 -65.203 Q 39.094 -65.203 38.297 -64.203 L 38.297 -64.203 L 38.297 -64.094 L 38.203 -64.094 L 38.203 -64.000 Q 37.797 -63.406 37.297 -61.406 L 31.094 -36.594 z M 26.594 -3.0938 L 40.203 -3.0938 Q 49.797 -3.0938 56.094 -10.297 Q 60.906 -15.906 60.906 -22.703 Q 60.906 -30.000 55.703 -33.000 Q 53.094 -34.406 49.406 -34.406 L 30.500 -34.406 L 23.594 -6.5000 Q 23.094 -4.7031 23.094 -4.2031 Q 23.094 -3.4062 24.000 -3.2031 L 24.000 -3.2031 L 24.000 -3.2031 L 24.406 -3.2031 Q 25.000 -3.0938 26.594 -3.0938 z"/>
<title>x_B</title>
<desc>texte4 = “x_B”</desc>

</g> <!-- drawing style -->
</g> <!-- clip45 -->
</g> <!-- transform -->
<g transform="matrix(.25000, 0.0000, 0.0000, .25000, 178.00, 284.08)">
<clipPath id="clipe5c2c057-a147-470b-ba83-876b8c565374">
  <path d="M -712.00 -1136.3 L -712.00 871.70 L 2168.0 871.70 L 2168.0 -1136.3 z"/>
</clipPath>
<g clip-path="url(#clip46)">
<g fill-opacity="1.0000" fill-rule="nonzero" stroke="none" fill="#000000">
  <path d="M 17.906 -11.500 L 52.703 -69.906 Q 53.703 -71.500 55.297 -71.594 Q 56.797 -71.594 57.000 -70.594 Q 57.094 -70.297 57.203 -69.203 L 63.297 -6.7031 Q 63.594 -4.2031 64.500 -3.7031 L 64.594 -3.7031 L 64.594 -3.7031 L 64.594 -3.7031 L 64.594 -3.7031 L 64.594 -3.5938 Q 65.797 -3.0938 69.797 -3.0938 Q 72.000 -3.0938 72.094 -2.0000 Q 72.094 -0.0000 70.297 -0.0000 L 59.094 -.29688 L 59.000 -.29688 L 46.594 -0.0000 L 46.500 -0.0000 Q 45.094 -0.0000 45.094 -1.0938 Q 45.906 -3.0000 47.500 -3.0938 Q 54.703 -3.0938 54.703 -6.4062 Q 54.703 -6.2969 53.094 -23.094 L 28.000 -23.094 L 20.406 -10.297 Q 19.000 -7.7969 19.000 -6.5938 Q 19.000 -3.5000 23.703 -3.0938 Q 25.297 -3.0938 25.297 -1.9062 Q 25.297 -0.0000 23.406 -0.0000 L 13.797 -.29688 L 13.406 -.29688 L 5.0000 -0.0000 L 4.7969 -0.0000 Q 3.5000 -0.0000 3.5000 -1.0938 Q 3.5000 -2.9062 5.0000 -3.0000 L 5.0000 -3.0938 L 5.5938 -3.0938 Q 11.906 -3.5000 15.906 -8.5000 Q 16.906 -9.7969 17.906 -11.500 z M 29.906 -26.203 L 52.797 -26.203 L 49.594 -59.203 L 29.906 -26.203 z"/>
<title>A</title>
<desc>texte5 = “A”</desc>

</g> <!-- drawing style -->
</g> <!-- clip46 -->
</g> <!-- transform -->
<g transform="matrix(.25000, 0.0000, 0.0000, .25000, 609.00, 56.075)">
<clipPath id="clip3f7dafe7-5605-4b43-a40d-a48ab2c1483e">
  <path d="M -2436.0 -224.30 L -2436.0 1783.7 L 444.00 1783.7 L 444.00 -224.30 z"/>
</clipPath>
<g clip-path="url(#clip47)">
<g fill-opacity="1.0000" fill-rule="nonzero" stroke="none" fill="#000000">
  <path d="M 16.000 -7.7969 L 29.406 -61.500 Q 29.797 -63.094 29.797 -63.406 Q 29.797 -64.594 28.203 -64.906 L 28.094 -64.906 L 28.000 -64.906 Q 27.703 -64.906 27.094 -65.000 Q 25.406 -65.203 23.297 -65.203 Q 20.703 -65.203 20.500 -66.297 Q 20.500 -68.094 22.000 -68.297 L 22.094 -68.297 L 22.203 -68.297 L 23.406 -68.297 L 57.000 -68.297 Q 68.500 -68.297 73.406 -61.500 Q 75.594 -58.297 75.594 -54.500 Q 75.594 -46.406 66.594 -40.406 Q 66.500 -40.406 66.406 -40.297 Q 61.094 -36.906 54.703 -35.703 Q 64.906 -34.500 68.703 -27.703 Q 70.203 -24.906 70.203 -21.594 Q 70.203 -14.297 63.203 -7.9062 L 63.094 -7.7969 Q 54.500 -0.0000 42.594 -0.0000 L 6.9062 -0.0000 Q 4.4062 -0.0000 4.2031 -1.0938 Q 4.2031 -2.9062 5.7031 -3.0938 L 6.9062 -3.0938 Q 13.406 -3.0938 14.703 -4.5000 Q 15.297 -5.2031 15.906 -7.2969 Q 15.906 -7.4062 16.000 -7.7969 z M 31.094 -36.594 L 45.703 -36.594 Q 55.594 -36.594 62.000 -43.797 Q 66.500 -48.906 66.500 -54.906 Q 66.500 -62.203 60.500 -64.406 Q 58.406 -65.203 55.594 -65.203 L 42.703 -65.203 Q 39.094 -65.203 38.297 -64.203 L 38.297 -64.203 L 38.297 -64.094 L 38.203 -64.094 L 38.203 -64.000 Q 37.797 -63.406 37.297 -61.406 L 31.094 -36.594 z M 26.594 -3.0938 L 40.203 -3.0938 Q 49.797 -3.0938 56.094 -10.297 Q 60.906 -15.906 60.906 -22.703 Q 60.906 -30.000 55.703 -33.000 Q 53.094 -34.406 49.406 -34.406 L 30.500 -34.406 L 23.594 -6.5000 Q 23.094 -4.7031 23.094 -4.2031 Q 23.094 -3.4062 24.000 -3.2031 L 24.000 -3.2031 L 24.000 -3.2031 L 24.406 -3.2031 Q 25.000 -3.0938 26.594 -3.0938 z"/>
<title>B</title>
<desc>texte6 = “B”</desc>

</g> <!-- drawing style -->
</g> <!-- clip47 -->
</g> <!-- transform -->
</g><!-- layer0 -->
</g> <!-- default stroke -->
</svg> <!-- bounding box -->
